Session 2: Homework 1
…
# No missing values!

Make a plot that shows the top 25 beer consuming countries

beer_data<-drinks %>% 
  arrange(desc(beer_servings)) %>% 
  slice(1:25)

beer_data

## # A tibble: 25 x 5
##    country     beer_servings spirit_servings wine_servings total_litres_of_pure~
##    <chr>               <int>           <int>         <int>                 <dbl>
##  1 Namibia               376               3             1                   6.8
##  2 Czech Repu~           361             170           134                  11.8
##  3 Gabon                 347              98            59                   8.9
##  4 Germany               346             117           175                  11.3
##  5 Lithuania             343             244            56                  12.9
##  6 Poland                343             215            56                  10.9
##  7 Venezuela             333             100             3                   7.7
##  8 Ireland               313             118           165                  11.4
##  9 Palau                 306              63            23                   6.9
## 10 Romania               297             122           167                  10.4
## # ... with 15 more rows
…
Make a plot that shows the top 25 wine consuming countries

wine_data <- drinks %>%
  arrange(desc(wine_servings))%>%
  slice(1:25)

wine_data

## # A tibble: 25 x 5
##    country      beer_servings spirit_servings wine_servings total_litres_of_pur~
##    <chr>                <int>           <int>         <int>                <dbl>
##  1 France                 127             151           370                 11.8
##  2 Portugal               194              67           339                 11  
##  3 Andorra                245             138           312                 12.4
##  4 Switzerland            185             100           280                 10.2
##  5 Denmark                224              81           278                 10.4
##  6 Slovenia               270              51           276                 10.6
##  7 Luxembourg             236             133           271                 11.4
##  8 Croatia                230              87           254                 10.2
##  9 Italy                   85              42           237                  6.5
## 10 Equatorial ~            92               0           233                  5.8
## # ... with 15 more rows
…
Finally, make a plot that shows the top 25 spirit consuming countries

spirit_data <- drinks %>%
  arrange(desc(spirit_servings))%>%
  slice(1:25)

spirit_data

## # A tibble: 25 x 5
##    country      beer_servings spirit_servings wine_servings total_litres_of_pur~
##    <chr>                <int>           <int>         <int>                <dbl>
##  1 Grenada                199             438            28                 11.9
##  2 Belarus                142             373            42                 14.4
##  3 Haiti                    1             326             1                  5.9
##  4 Russian Fed~           247             326            73                 11.5
##  5 St. Lucia              171             315            71                 10.1
##  6 Guyana                  93             302             1                  7.1
##  7 Slovakia               196             293           116                 11.4
##  8 Dominica                52             286            26                  6.6
##  9 Thailand                99             258             1                  6.4
## 10 Cook Islands             0             254            74                  5.9
## # ... with 15 more rows
…
Create a dataframe and assign it to a new object, where you summarise monthly returns since 2017-01-01 for each of the stocks and SPY; min, max, median, mean, SD.

summarise_monthly_returns <- myStocks_returns_monthly %>%
  group_by(symbol)%>%
  summarise(min_month_return = min(monthly_returns), 
            max_month_return = max(monthly_returns),
            median_month_return = median(monthly_returns),
            mean_month_return = mean(monthly_returns),
            sd_month_return = sd(monthly_returns)
            )
summarise_monthly_returns

## # A tibble: 31 x 6
##    symbol min_month_return max_month_return median_month_re~ mean_month_retu~
##    <chr>             <dbl>            <dbl>            <dbl>            <dbl>
##  1 AAPL             -0.577            0.454           0.0352          0.0275 
##  2 AMGN             -0.170            0.328           0.0104          0.00916
##  3 AXP              -0.279            0.875           0.0102          0.00818
##  4 BA               -0.458            0.257           0.0179          0.0120 
##  5 CAT              -0.353            0.350           0.0133          0.0143 
##  6 CRM              -0.360            0.403           0.0205          0.0276 
##  7 CSCO             -0.367            0.389           0.0125          0.00495
##  8 CVX              -0.224            0.270           0.0122          0.00852
##  9 DIS              -0.268            0.234           0.0107          0.00980
## 10 DOW              -0.276            0.255           0.0456          0.00898
## # ... with 21 more rows, and 1 more variable: sd_month_return <dbl>
…
